R6 Class Representing Tasks and Projects — Calendario • calendario
…
second task
Fri Jan 23 2026
Sun Jun 08 2025
1

## ------------------------------------------------
## Method `Calendario$get_workload`
## ------------------------------------------------

cal <- Calendario$new()
cal$set_project("my project")
cal$add_task("first task", "jan 21")
cal$add_task("second task", "jan 23")
cal$get_workload()
#> # A tibble: 165 × 6
#>    date       hours weekday month monthday  week
#>    <date>     <dbl> <ord>   <ord>    <int> <int>
#>  1 2025-06-09     2 Mon     Jun          9     1
#>  2 2025-06-10     2 Tue     Jun         10     1
#>  3 2025-06-11     2 Wed     Jun         11     1
#>  4 2025-06-12     2 Thu     Jun         12     1
#>  5 2025-06-13     2 Fri     Jun         13     1
#>  6 2025-06-16     2 Mon     Jun         16     2
#>  7 2025-06-17     2 Tue     Jun         17     2
#>  8 2025-06-18     2 Wed     Jun         18     2
#>  9 2025-06-19     2 Thu     Jun         19     2
#> 10 2025-06-20     2 Fri     Jun         20     2
#> # ℹ 155 more rows

## ------------------------------------------------
## Method `Calendario$get_calendar`
## ------------------------------------------------

cal <- Calendario$new()
cal$set_project("my project")
cal$add_task("first task", "jan 21")
cal$add_task("second task", "jan 23")
cal$get_workload(start = "jan 1", stop = "feb 16")
#> # A tibble: 181 × 6
#>    date       hours weekday month monthday  week
#>    <date>     <dbl> <ord>   <ord>    <int> <int>
#>  1 2025-06-09     2 Mon     Jun          9     1
#>  2 2025-06-10     2 Tue     Jun         10     1
#>  3 2025-06-11     2 Wed     Jun         11     1
#>  4 2025-06-12     2 Thu     Jun         12     1
#>  5 2025-06-13     2 Fri     Jun         13     1
#>  6 2025-06-16     2 Mon     Jun         16     2
#>  7 2025-06-17     2 Tue     Jun         17     2
#>  8 2025-06-18     2 Wed     Jun         18     2
#>  9 2025-06-19     2 Thu     Jun         19     2
#> 10 2025-06-20     2 Fri     Jun         20     2
#> # ℹ 171 more rows
…
